…
# Query with SQL
projects <- dbGetQuery(con, "
  SELECT * FROM carbon_projects
  WHERE continent = 'africa' AND area_role = 'project'
  LIMIT 10
")

# Or use d(uck)plyr
projects <- tbl(con, "carbon_projects") |>
  filter(continent == "africa", area_role == "project") |>
  collect()

projects
#> # A tibble: 72 × 16
#>    id    project_name area_role registry_name methodology project_type continent
#>    <chr> <chr>        <chr>     <chr>         <chr>       <chr>        <chr>    
#>  1 VCS2… Pendjari an… project   Verra         VM0009      AD           africa   
#>  2 VCS2… Forest Cons… project   Verra         VM0010      IFM          africa   
#>  3 VCS2… Chinko Cons… project   Verra         VM0009      AD           africa   
#>  4 GS56… EcoMakala V… project   Gold Standard Gold Stand… ARR          africa   
#>  5 VCS1… Isangi REDD… project   Verra         VM0006      AD           africa   
#>  6 VCS9… The Mai Ndo… project   Verra         VM0009      AD           africa   
#>  7 GS10… Humbo Ethio… project   Gold Standard AR-AM0003   ARR          africa   
#>  8 GS30… Soddo Commu… project   Gold Standard Gold Stand… ARR          africa   
#>  9 VCS1… Bale Mounta… project   Verra         VM0015      AD           africa   
#> 10 GS11… JOil Jatrop… project   Gold Standard Gold Stand… ARR          africa   
#> # ℹ 62 more rows
#> # ℹ 9 more variables: country <chr>, project_developer <chr>,
#> #   project_start_date <chr>, project_end_date <chr>, entry_date <chr>,
#> #   processing_approach <chr>, pd_declined <chr>, filename <chr>,
#> #   geometry_wkb <list>
…
